simulation/qsim/RTR.msim.vcd
$comment
	File created using the following command:
		vcd file RTR.msim.vcd -direction
$end
$date
	Wed Jan 25 10:49:52 2023
$end
$version
	ModelSim Version 10.1d
$end
$timescale
	1ps
$end
$scope module RTR_vlg_vec_tst $end
$var reg 1 ! CLK $end
$var wire 1 " A0 $end
$var wire 1 # A1 $end
$var wire 1 $ A2 $end
$var wire 1 % A3 $end
$var wire 1 & B0 $end
$var wire 1 ' B1 $end
$var wire 1 ( B2 $end
$var wire 1 ) B3 $end
$var wire 1 * C0 $end
$var wire 1 + C1 $end
$var wire 1 , C2 $end
$var wire 1 - C3 $end
$var wire 1 . D0 $end
$var wire 1 / D1 $end
$var wire 1 0 D2 $end
$var wire 1 1 D3 $end
$var wire 1 2 E0 $end
$var wire 1 3 E1 $end
$var wire 1 4 E2 $end
$var wire 1 5 E3 $end
$var wire 1 6 F0 $end
$var wire 1 7 F1 $end
$var wire 1 8 F2 $end
$var wire 1 9 F3 $end
$var wire 1 : G0 $end
$var wire 1 ; G1 $end
$var wire 1 < G2 $end
$var wire 1 = G3 $end
$var wire 1 > sampler $end
$scope module i1 $end
$var wire 1 ? gnd $end
$var wire 1 @ vcc $end
$var wire 1 A unknown $end
$var tri1 1 B devclrn $end
$var tri1 1 C devpor $end
$var tri1 1 D devoe $end
$var wire 1 E inst|synthesized_var_for_JKFF_inst17~0_combout $end
$var wire 1 F inst4|synthesized_var_for_SYNTHESIZED_WIRE_17~0_combout $end
$var wire 1 G CLK~input_o $end
$var wire 1 H A0~output_o $end
$var wire 1 I B0~output_o $end
$var wire 1 J C0~output_o $end
$var wire 1 K D0~output_o $end
$var wire 1 L E0~output_o $end
$var wire 1 M F0~output_o $end
$var wire 1 N G0~output_o $end
$var wire 1 O B1~output_o $end
$var wire 1 P C1~output_o $end
$var wire 1 Q D1~output_o $end
$var wire 1 R E1~output_o $end
$var wire 1 S F1~output_o $end
$var wire 1 T G1~output_o $end
$var wire 1 U A2~output_o $end
$var wire 1 V B2~output_o $end
$var wire 1 W C2~output_o $end
$var wire 1 X D2~output_o $end
$var wire 1 Y F2~output_o $end
$var wire 1 Z G2~output_o $end
$var wire 1 [ A3~output_o $end
$var wire 1 \ B3~output_o $end
$var wire 1 ] C3~output_o $end
$var wire 1 ^ D3~output_o $end
$var wire 1 _ E3~output_o $end
$var wire 1 ` F3~output_o $end
$var wire 1 a G3~output_o $end
$var wire 1 b A1~output_o $end
$var wire 1 c E2~output_o $end
$var wire 1 d inst|synthesized_var_for_SYNTHESIZED_WIRE_20~0_combout $end
$var wire 1 e inst|synthesized_var_for_JKFF_inst4~0_combout $end
$var wire 1 f inst|synthesized_var_for_JKFF_inst4~q $end
$var wire 1 g inst3~combout $end
$var wire 1 h inst|synthesized_var_for_SYNTHESIZED_WIRE_20~q $end
$var wire 1 i inst|synthesized_var_for_JKFF_inst3~0_combout $end
$var wire 1 j inst|synthesized_var_for_JKFF_inst3~q $end
$var wire 1 k inst|synthesized_var_for_JKFF_inst17~feeder_combout $end
$var wire 1 l inst|synthesized_var_for_JKFF_inst17~q $end
$var wire 1 m inst2|SYNTHESIZED_WIRE_18~0_combout $end
$var wire 1 n inst2|SYNTHESIZED_WIRE_30~combout $end
$var wire 1 o inst2|SYNTHESIZED_WIRE_37~0_combout $end
$var wire 1 p inst2|SYNTHESIZED_WIRE_38~0_combout $end
$var wire 1 q inst2|SYNTHESIZED_WIRE_39~0_combout $end
$var wire 1 r inst2|SYNTHESIZED_WIRE_40~0_combout $end
$var wire 1 s inst2|SYNTHESIZED_WIRE_41~0_combout $end
$var wire 1 t inst4|synthesized_var_for_SYNTHESIZED_WIRE_17~feeder_combout $end
$var wire 1 u inst4|synthesized_var_for_SYNTHESIZED_WIRE_17~q $end
$var wire 1 v inst4|synthesized_var_for_JKFF_inst2~0_combout $end
$var wire 1 w inst4|synthesized_var_for_JKFF_inst2~q $end
$var wire 1 x inst7~combout $end
$var wire 1 y inst4|synthesized_var_for_JKFF_inst~0_combout $end
$var wire 1 z inst4|synthesized_var_for_JKFF_inst~feeder_combout $end
$var wire 1 { inst4|synthesized_var_for_JKFF_inst~q $end
$var wire 1 | inst5|SYNTHESIZED_WIRE_37~combout $end
$var wire 1 } inst5|SYNTHESIZED_WIRE_30~1_combout $end
$var wire 1 ~ inst5|SYNTHESIZED_WIRE_8~combout $end
$var wire 1 !! inst5|SYNTHESIZED_WIRE_41~0_combout $end
$var wire 1 "! inst8|synthesized_var_for_JKFF_inst17~0_combout $end
$var wire 1 #! inst8|synthesized_var_for_JKFF_inst4~0_combout $end
$var wire 1 $! inst8|synthesized_var_for_JKFF_inst4~q $end
$var wire 1 %! inst8|synthesized_var_for_SYNTHESIZED_WIRE_20~0_combout $end
$var wire 1 &! inst8|synthesized_var_for_SYNTHESIZED_WIRE_20~q $end
$var wire 1 '! inst11~combout $end
$var wire 1 (! inst8|synthesized_var_for_JKFF_inst17~q $end
$var wire 1 )! inst8|synthesized_var_for_JKFF_inst3~0_combout $end
$var wire 1 *! inst8|synthesized_var_for_JKFF_inst3~feeder_combout $end
$var wire 1 +! inst8|synthesized_var_for_JKFF_inst3~q $end
$var wire 1 ,! inst9|SYNTHESIZED_WIRE_18~0_combout $end
$var wire 1 -! inst9|SYNTHESIZED_WIRE_30~combout $end
$var wire 1 .! inst9|SYNTHESIZED_WIRE_37~0_combout $end
$var wire 1 /! inst9|SYNTHESIZED_WIRE_38~0_combout $end
$var wire 1 0! inst9|SYNTHESIZED_WIRE_40~0_combout $end
$var wire 1 1! inst9|SYNTHESIZED_WIRE_41~0_combout $end
$var wire 1 2! inst12|synthesized_var_for_JKFF_inst2~0_combout $end
$var wire 1 3! inst12|synthesized_var_for_SYNTHESIZED_WIRE_17~0_combout $end
$var wire 1 4! inst12|synthesized_var_for_SYNTHESIZED_WIRE_17~q $end
$var wire 1 5! inst13|SYNTHESIZED_WIRE_30~0_combout $end
$var wire 1 6! inst12|synthesized_var_for_JKFF_inst2~q $end
$var wire 1 7! inst12|synthesized_var_for_JKFF_inst~0_combout $end
$var wire 1 8! inst12|synthesized_var_for_JKFF_inst~feeder_combout $end
$var wire 1 9! inst12|synthesized_var_for_JKFF_inst~q $end
$var wire 1 :! inst13|SYNTHESIZED_WIRE_18~combout $end
$var wire 1 ;! inst13|SYNTHESIZED_WIRE_37~combout $end
$var wire 1 <! inst13|SYNTHESIZED_WIRE_30~1_combout $end
$var wire 1 =! inst13|SYNTHESIZED_WIRE_8~combout $end
$var wire 1 >! inst13|SYNTHESIZED_WIRE_41~0_combout $end
$var wire 1 ?! inst5|SYNTHESIZED_WIRE_18~combout $end
$var wire 1 @! inst9|SYNTHESIZED_WIRE_39~0_combout $end
$upscope $end
$upscope $end
$enddefinitions $end
#0
$dumpvars
0!
x"
x#
x$
x%
x&
x'
x(
x)
x*
x+
x,
x-
x.
x/
x0
x1
x2
x3
x4
x5
x6
x7
x8
x9
x:
x;
x<
x=
x>
0?
1@
xA
1B
1C
1D
xE
xF
0G
xH
xI
xJ
xK
xL
xM
xN
xO
xP
xQ
xR
xS
xT
xU
xV
xW
xX
xY
xZ
x[
x\
x]
x^
x_
x`
xa
xb
xc
xd
1e
0f
xg
0h
xi
0j
xk
0l
xm
xn
xo
xp
xq
xr
xs
xt
0u
1v
0w
xx
xy
xz
0{
x|
x}
x~
x!!
x"!
1#!
0$!
x%!
0&!
x'!
0(!
x)!
x*!
0+!
x,!
x-!
x.!
x/!
x0!
x1!
12!
x3!
04!
x5!
06!
x7!
x8!
09!
1:!
x;!
x<!
x=!
x>!
x?!
x@!
$end
#424
05!
#435
1x
1'!
#436
1g
#600
0<!
#609
1%!
13!
#610
1=!
#613
1F
#695
1i
#712
1n
#736
1.!
#759
1p
#761
1d
#763
1)!
#845
1|
#857
1y
#879
0>!
#881
1;!
17!
#882
1r
#888
1o
#903
1-!
#908
1m
#910
0s
#916
1q
#935
1@!
#938
1/!
#978
1"!
#1030
1,!
#1090
10!
#1117
1?!
#1118
0!!
#1132
0}
#1144
1~
#1169
1t
#1265
01!
#1318
1*!
#1554
1z
#1584
1E
#1769
18!
#2561
0[
0%
#2993
1k
#3108
0^
01
#3290
0K
0.
#3296
0\
0)
#3370
1N
1:
#3378
0_
05
#3396
0M
06
#3405
0S
07
#3415
0W
0,
#3418
0J
0*
#3433
0]
0-
#3451
0L
02
#3470
0V
0(
#3487
0X
00
#3494
0I
0&
#3522
0c
04
#3583
0O
0'
#3594
0U
0$
#3631
0`
09
#3676
0Y
08
#3693
1a
1=
#3694
0P
0+
#3858
1T
1;
#3868
0Q
0/
#3946
0H
0"
#4123
0b
0#
#4204
1Z
1<
#4205
0R
03
#5000
1!
0>
#5775
1G
#10000
0!
1>
#10936
0G
#12796
1l
#13486
1s
#14330
0E
#15000
1!
0>
#15753
0k
#15775
1G
#16008
0N
0:
#20000
0!
1>
#20936
0G
#22796
0l
#23566
0s
#24086
1h
#24380
1E
#24761
0p
#24762
0d
#24907
1s
#24917
0m
#24921
0q
#25000
1!
0>
#25775
1G
#25789
1k
#27229
1K
1.
#27394
1L
12
#27874
1H
1"
#30000
0!
1>
#30936
0G
#32796
1l
#33489
1m
#34330
0E
#35000
1!
0>
#35753
0k
#35775
1G
#36527
0H
0"
#40000
0!
1>
#40936
0G
#42796
0l
#43561
0m
#44086
0h
#44380
1E
#44845
1p
#44847
1d
#44994
1m
#44996
0s
#45000
1!
0>
#45002
1q
#45323
1j
#45775
1G
#45789
1k
#45957
0i
#46137
1s
#46150
0r
#46154
0o
#47376
0K
0.
#47537
0L
02
#48597
1M
16
#48622
1J
1*
#50000
0!
1>
#50936
0G
#52796
1l
#53485
1o
#53486
1r
#54330
0E
#55000
1!
0>
#55753
0k
#55775
1G
#56000
0M
06
#56015
0J
0*
#60000
0!
1>
#60936
0G
#62796
0l
#63561
0r
#63565
0o
#64086
1h
#64380
1E
#64722
0n
#64762
0d
#64892
1r
1o
#65000
1!
0>
#65775
1G
#65789
1k
#67437
1I
1&
#70000
0!
1>
#70936
0G
#72796
1l
#73483
0q
#74330
0E
#75000
1!
0>
#75753
0k
#75775
1G
#75956
1L
12
#80000
0!
1>
#80936
0G
#82796
0l
#83562
1q
#84086
0h
#84380
1E
#84798
1n
#84847
1d
#85000
1!
0>
#85011
0r
#85015
0o
#85323
0j
#85775
1G
#85789
1k
#86018
1i
#86097
0L
02
#86205
1r
#86207
0s
#86211
1o
#86549
1f
#86918
0e
#87094
0p
0m
#87098
0q
#87100
0r
#87580
0I
0&
#88667
1N
1:
#89547
1M
16
#89562
1K
1.
#89571
1L
12
#90000
0!
1>
#90051
1H
1"
#90936
0G
#92796
1l
#93486
1s
1r
#93489
1m
#94330
0E
#95000
1!
0>
#95753
0k
#95775
1G
#96000
0M
06
#96008
0N
0:
#96527
0H
0"
#100000
0!
1>
#100936
0G
#102796
0l
#103561
0r
0m
#103566
0s
#104086
1h
#104380
1E
#104444
0g
#104722
0n
#104760
1p
#104762
0d
#104892
1r
#104901
1m
#104907
1s
#105000
1!
0>
#105436
0f
0h
#105775
1G
#105789
1k
1e
#105872
1g
#106148
1n
#106197
1d
#106346
0s
#106352
1q
#106955
1{
#107291
0K
0.
#107747
0y
#108016
1!!
#108490
0z
#108806
1N
1:
#108887
0L
02
#110000
0!
1>
#110823
0T
0;
#110936
0G
#112796
1l
#113486
1s
#114330
0E
#115000
1!
0>
#115753
0k
#115775
1G
#116008
0N
0:
#120000
0!
1>
#120936
0G
#122796
0l
#123566
0s
#124086
1h
#124380
1E
#124761
0p
#124762
0d
#124907
1s
#124917
0m
#124921
0q
#125000
1!
0>
#125775
1G
#125789
1k
#127229
1K
1.
#127394
1L
12
#127874
1H
1"
#130000
0!
1>
#130936
0G
#132796
1l
#133489
1m
#134330
0E
#135000
1!
0>
#135753
0k
#135775
1G
#136527
0H
0"
#140000
0!
1>
#140936
0G
#142796
0l
#143561
0m
#144086
0h
#144380
1E
#144845
1p
#144847
1d
#144994
1m
#144996
0s
#145000
1!
0>
#145002
1q
#145323
1j
#145775
1G
#145789
1k
#145957
0i
#146137
1s
#146150
0r
#146154
0o
#147376
0K
0.
#147537
0L
02
#148597
1M
16
#148622
1J
1*
#150000
0!
1>
#150936
0G
#152796
1l
#153485
1o
#153486
1r
#154330
0E
#155000
1!
0>
#155753
0k
#155775
1G
#156000
0M
06
#156015
0J
0*
#160000
0!
1>
#160936
0G
#162796
0l
#163561
0r
#163565
0o
#164086
1h
#164380
1E
#164722
0n
#164762
0d
#164892
1r
1o
#165000
1!
0>
#165775
1G
#165789
1k
#167437
1I
1&
#170000
0!
1>
#170936
0G
#172796
1l
#173483
0q
#174330
0E
#175000
1!
0>
#175753
0k
#175775
1G
#175956
1L
12
#180000
0!
1>
#180936
0G
#182796
0l
#183562
1q
#184086
0h
#184380
1E
#184798
1n
#184847
1d
#185000
1!
0>
#185011
0r
#185015
0o
#185323
0j
#185775
1G
#185789
1k
#186018
1i
#186097
0L
02
#186205
1r
#186207
0s
#186211
1o
#186549
1f
#186918
0e
#187094
0p
0m
#187098
0q
#187100
0r
#187580
0I
0&
#188667
1N
1:
#189547
1M
16
#189562
1K
1.
#189571
1L
12
#190000
0!
1>
#190051
1H
1"
#190936
0G
#192796
1l
#193486
1s
1r
#193489
1m
#194330
0E
#195000
1!
0>
#195753
0k
#195775
1G
#196000
0M
06
#196008
0N
0:
#196527
0H
0"
#200000
0!
1>
#200936
0G
#202796
0l
#203561
0r
0m
#203566
0s
#204086
1h
#204380
1E
#204444
0g
#204722
0n
#204760
1p
#204762
0d
#204892
1r
#204901
1m
#204907
1s
#205000
1!
0>
#205436
0f
0h
#205775
1G
#205789
1k
1e
#205872
1g
#206148
1n
#206197
1d
#206346
0s
#206352
1q
#206955
0{
#207291
0K
0.
#207812
1y
#208073
0!!
#208158
1u
#208509
1z
#208691
0F
#208806
1N
1:
#208887
0L
02
#209198
1!!
#209200
1}
#209216
0?!
#209226
0~
#209303
0t
#210000
0!
1>
#210936
0G
#212004
1Q
1/
#212150
1b
1#
#212211
1R
13
#212796
1l
#213486
1s
#214330
0E
#215000
1!
0>
#215753
0k
#215775
1G
#216008
0N
0:
#220000
0!
1>
#220936
0G
#222796
0l
#223566
0s
#224086
1h
#224380
1E
#224761
0p
#224762
0d
#224907
1s
#224917
0m
#224921
0q
#225000
1!
0>
#225775
1G
#225789
1k
#227229
1K
1.
#227394
1L
12
#227874
1H
1"
#230000
0!
1>
#230936
0G
#232796
1l
#233489
1m
#234330
0E
#235000
1!
0>
#235753
0k
#235775
1G
#236527
0H
0"
#240000
0!
1>
#240936
0G
#242796
0l
#243561
0m
#244086
0h
#244380
1E
#244845
1p
#244847
1d
#244994
1m
#244996
0s
#245000
1!
0>
#245002
1q
#245323
1j
#245775
1G
#245789
1k
#245957
0i
#246137
1s
#246150
0r
#246154
0o
#247376
0K
0.
#247537
0L
02
#248597
1M
16
#248622
1J
1*
#250000
0!
1>
#250936
0G
#252796
1l
#253485
1o
#253486
1r
#254330
0E
#255000
1!
0>
#255753
0k
#255775
1G
#256000
0M
06
#256015
0J
0*
#260000
0!
1>
#260936
0G
#262796
0l
#263561
0r
#263565
0o
#264086
1h
#264380
1E
#264722
0n
#264762
0d
#264892
1r
1o
#265000
1!
0>
#265775
1G
#265789
1k
#267437
1I
1&
#270000
0!
1>
#270936
0G
#272796
1l
#273483
0q
#274330
0E
#275000
1!
0>
#275753
0k
#275775
1G
#275956
1L
12
#280000
0!
1>
#280936
0G
#282796
0l
#283562
1q
#284086
0h
#284380
1E
#284798
1n
#284847
1d
#285000
1!
0>
#285011
0r
#285015
0o
#285323
0j
#285775
1G
#285789
1k
#286018
1i
#286097
0L
02
#286205
1r
#286207
0s
#286211
1o
#286549
1f
#286918
0e
#287094
0p
0m
#287098
0q
#287100
0r
#287580
0I
0&
#288667
1N
1:
#289547
1M
16
#289562
1K
1.
#289571
1L
12
#290000
0!
1>
#290051
1H
1"
#290936
0G
#292796
1l
#293486
1s
1r
#293489
1m
#294330
0E
#295000
1!
0>
#295753
0k
#295775
1G
#296000
0M
06
#296008
0N
0:
#296527
0H
0"
#300000
0!
1>
#300936
0G
#302796
0l
#303561
0r
0m
#303566
0s
#304086
1h
#304380
1E
#304444
0g
#304722
0n
#304760
1p
#304762
0d
#304892
1r
#304901
1m
#304907
1s
#305000
1!
0>
#305436
0f
0h
#305775
1G
#305789
1k
1e
#305872
1g
#306148
1n
#306197
1d
#306346
0s
#306352
1q
#306955
1{
#307291
0K
0.
#307747
0y
#308001
1?!
#308490
0z
#308806
1N
1:
#308887
0L
02
#310000
0!
1>
#310936
0G
#311007
0b
0#
#312796
1l
#313486
1s
#314330
0E
#315000
1!
0>
#315753
0k
#315775
1G
#316008
0N
0:
#320000
0!
1>
#320936
0G
#322796
0l
#323566
0s
#324086
1h
#324380
1E
#324761
0p
#324762
0d
#324907
1s
#324917
0m
#324921
0q
#325000
1!
0>
#325775
1G
#325789
1k
#327229
1K
1.
#327394
1L
12
#327874
1H
1"
#330000
0!
1>
#330936
0G
#332796
1l
#333489
1m
#334330
0E
#335000
1!
0>
#335753
0k
#335775
1G
#336527
0H
0"
#340000
0!
1>
#340936
0G
#342796
0l
#343561
0m
#344086
0h
#344380
1E
#344845
1p
#344847
1d
#344994
1m
#344996
0s
#345000
1!
0>
#345002
1q
#345323
1j
#345775
1G
#345789
1k
#345957
0i
#346137
1s
#346150
0r
#346154
0o
#347376
0K
0.
#347537
0L
02
#348597
1M
16
#348622
1J
1*
#350000
0!
1>
#350936
0G
#352796
1l
#353485
1o
#353486
1r
#354330
0E
#355000
1!
0>
#355753
0k
#355775
1G
#356000
0M
06
#356015
0J
0*
#360000
0!
1>
#360936
0G
#362796
0l
#363561
0r
#363565
0o
#364086
1h
#364380
1E
#364722
0n
#364762
0d
#364892
1r
1o
#365000
1!
0>
#365775
1G
#365789
1k
#367437
1I
1&
#370000
0!
1>
#370936
0G
#372796
1l
#373483
0q
#374330
0E
#375000
1!
0>
#375753
0k
#375775
1G
#375956
1L
12
#380000
0!
1>
#380936
0G
#382796
0l
#383562
1q
#384086
0h
#384380
1E
#384798
1n
#384847
1d
#385000
1!
0>
#385011
0r
#385015
0o
#385323
0j
#385775
1G
#385789
1k
#386018
1i
#386097
0L
02
#386205
1r
#386207
0s
#386211
1o
#386549
1f
#386918
0e
#387094
0p
0m
#387098
0q
#387100
0r
#387580
0I
0&
#388667
1N
1:
#389547
1M
16
#389562
1K
1.
#389571
1L
12
#390000
0!
1>
#390051
1H
1"
#390936
0G
#392796
1l
#393486
1s
1r
#393489
1m
#394330
0E
#395000
1!
0>
#395753
0k
#395775
1G
#396000
0M
06
#396008
0N
0:
#396527
0H
0"
#400000
0!
1>
#400936
0G
#402796
0l
#403561
0r
0m
#403566
0s
#404086
1h
#404380
1E
#404444
0g
#404722
0n
#404760
1p
#404762
0d
#404892
1r
#404901
1m
#404907
1s
#405000
1!
0>
#405436
0f
0h
#405775
1G
#405789
1k
1e
#405872
1g
#406148
1n
#406197
1d
#406346
0s
#406352
1q
#406955
0{
#407291
0K
0.
#407812
1y
#408096
0?!
#408158
0u
#408509
1z
#408771
1F
#408806
1N
1:
#408887
0L
02
#409207
1w
#409274
0!!
#409275
1?!
#409290
0}
#409302
1~
#409327
1t
#409576
0v
#409983
0|
#409992
1!!
#410000
0!
1>
#410936
0G
#412026
0Q
0/
#412363
0R
03
#412481
1S
17
#412764
1P
1+
#412796
1l
#413486
1s
#414330
0E
#415000
1!
0>
#415753
0k
#415775
1G
#416008
0N
0:
#420000
0!
1>
#420936
0G
#422796
0l
#423566
0s
#424086
1h
#424380
1E
#424761
0p
#424762
0d
#424907
1s
#424917
0m
#424921
0q
#425000
1!
0>
#425775
1G
#425789
1k
#427229
1K
1.
#427394
1L
12
#427874
1H
1"
#430000
0!
1>
#430936
0G
#432796
1l
#433489
1m
#434330
0E
#435000
1!
0>
#435753
0k
#435775
1G
#436527
0H
0"
#440000
0!
1>
#440936
0G
#442796
0l
#443561
0m
#444086
0h
#444380
1E
#444845
1p
#444847
1d
#444994
1m
#444996
0s
#445000
1!
0>
#445002
1q
#445323
1j
#445775
1G
#445789
1k
#445957
0i
#446137
1s
#446150
0r
#446154
0o
#447376
0K
0.
#447537
0L
02
#448597
1M
16
#448622
1J
1*
#450000
0!
1>
#450936
0G
#452796
1l
#453485
1o
#453486
1r
#454330
0E
#455000
1!
0>
#455753
0k
#455775
1G
#456000
0M
06
#456015
0J
0*
#460000
0!
1>
#460936
0G
#462796
0l
#463561
0r
#463565
0o
#464086
1h
#464380
1E
#464722
0n
#464762
0d
#464892
1r
1o
#465000
1!
0>
#465775
1G
#465789
1k
#467437
1I
1&
#470000
0!
1>
#470936
0G
#472796
1l
#473483
0q
#474330
0E
#475000
1!
0>
#475753
0k
#475775
1G
#475956
1L
12
#480000
0!
1>
#480936
0G
#482796
0l
#483562
1q
#484086
0h
#484380
1E
#484798
1n
#484847
1d
#485000
1!
0>
#485011
0r
#485015
0o
#485323
0j
#485775
1G
#485789
1k
#486018
1i
#486097
0L
02
#486205
1r
#486207
0s
#486211
1o
#486549
1f
#486918
0e
#487094
0p
0m
#487098
0q
#487100
0r
#487580
0I
0&
#488667
1N
1:
#489547
1M
16
#489562
1K
1.
#489571
1L
12
#490000
0!
1>
#490051
1H
1"
#490936
0G
#492796
1l
#493486
1s
1r
#493489
1m
#494330
0E
#495000
1!
0>
#495753
0k
#495775
1G
#496000
0M
06
#496008
0N
0:
#496527
0H
0"
#500000
0!
1>
#500936
0G
#502796
0l
#503561
0r
0m
#503566
0s
#504086
1h
#504380
1E
#504444
0g
#504722
0n
#504760
1p
#504762
0d
#504892
1r
#504901
1m
#504907
1s
#505000
1!
0>
#505436
0f
0h
#505775
1G
#505789
1k
1e
#505872
1g
#506148
1n
#506197
1d
#506346
0s
#506352
1q
#506955
1{
#507291
0K
0.
#507747
0y
#507967
1|
#508490
0z
#508806
1N
1:
#508887
0L
02
#510000
0!
1>
#510527
0S
07
#510816
0P
0+
#510936
0G
#512796
1l
#513486
1s
#514330
0E
#515000
1!
0>
#515753
0k
#515775
1G
#516008
0N
0:
#520000
0!
1>
#520936
0G
#522796
0l
#523566
0s
#524086
1h
#524380
1E
#524761
0p
#524762
0d
#524907
1s
#524917
0m
#524921
0q
#525000
1!
0>
#525775
1G
#525789
1k
#527229
1K
1.
#527394
1L
12
#527874
1H
1"
#530000
0!
1>
#530936
0G
#532796
1l
#533489
1m
#534330
0E
#535000
1!
0>
#535753
0k
#535775
1G
#536527
0H
0"
#540000
0!
1>
#540936
0G
#542796
0l
#543561
0m
#544086
0h
#544380
1E
#544845
1p
#544847
1d
#544994
1m
#544996
0s
#545000
1!
0>
#545002
1q
#545323
1j
#545775
1G
#545789
1k
#545957
0i
#546137
1s
#546150
0r
#546154
0o
#547376
0K
0.
#547537
0L
02
#548597
1M
16
#548622
1J
1*
#550000
0!
1>
#550936
0G
#552796
1l
#553485
1o
#553486
1r
#554330
0E
#555000
1!
0>
#555753
0k
#555775
1G
#556000
0M
06
#556015
0J
0*
#560000
0!
1>
#560936
0G
#562796
0l
#563561
0r
#563565
0o
#564086
1h
#564380
1E
#564722
0n
#564762
0d
#564892
1r
1o
#565000
1!
0>
#565775
1G
#565789
1k
#567437
1I
1&
#570000
0!
1>
#570936
0G
#572796
1l
#573483
0q
#574330
0E
#575000
1!
0>
#575753
0k
#575775
1G
#575956
1L
12
#580000
0!
1>
#580936
0G
#582796
0l
#583562
1q
#584086
0h
#584380
1E
#584798
1n
#584847
1d
#585000
1!
0>
#585011
0r
#585015
0o
#585323
0j
#585775
1G
#585789
1k
#586018
1i
#586097
0L
02
#586205
1r
#586207
0s
#586211
1o
#586549
1f
#586918
0e
#587094
0p
0m
#587098
0q
#587100
0r
#587580
0I
0&
#588667
1N
1:
#589547
1M
16
#589562
1K
1.
#589571
1L
12
#590000
0!
1>
#590051
1H
1"
#590936
0G
#592796
1l
#593486
1s
1r
#593489
1m
#594330
0E
#595000
1!
0>
#595753
0k
#595775
1G
#596000
0M
06
#596008
0N
0:
#596527
0H
0"
#600000
0!
1>
#600936
0G
#602796
0l
#603561
0r
0m
#603566
0s
#604086
1h
#604380
1E
#604444
0g
#604722
0n
#604760
1p
#604762
0d
#604892
1r
#604901
1m
#604907
1s
#605000
1!
0>
#605436
0f
0h
#605775
1G
#605789
1k
1e
#605872
1g
#606148
1n
#606197
1d
#606346
0s
#606352
1q
#606955
0{
#607291
0K
0.
#607812
1y
#608023
0|
#608158
1u
#608509
1z
#608642
0x
#608691
0F
#608806
1N
1:
#608887
0L
02
#609150
1|
#609303
0t
#609613
0u
0w
#609966
1v
#610000
0!
1>
#610048
1x
#610226
1F
#610729
0!!
#610782
1t
#610936
0G
#611424
1(!
#612332
0"!
#612632
11!
#612796
1l
#613469
1T
1;
#613486
1s
#614330
0E
#615000
1!
0>
#615648
0Z
0<
#615753
0k
#615775
1G
#616008
0N
0:
#620000
0!
1>
#620936
0G
#622796
0l
#623566
0s
#624086
1h
#624380
1E
#624761
0p
#624762
0d
#624907
1s
#624917
0m
#624921
0q
#625000
1!
0>
#625775
1G
#625789
1k
#627229
1K
1.
#627394
1L
12
#627874
1H
1"
#630000
0!
1>
#630936
0G
#632796
1l
#633489
1m
#634330
0E
#635000
1!
0>
#635753
0k
#635775
1G
#636527
0H
0"
#640000
0!
1>
#640936
0G
#642796
0l
#643561
0m
#644086
0h
#644380
1E
#644845
1p
#644847
1d
#644994
1m
#644996
0s
#645000
1!
0>
#645002
1q
#645323
1j
#645775
1G
#645789
1k
#645957
0i
#646137
1s
#646150
0r
#646154
0o
#647376
0K
0.
#647537
0L
02
#648597
1M
16
#648622
1J
1*
#650000
0!
1>
#650936
0G
#652796
1l
#653485
1o
#653486
1r
#654330
0E
#655000
1!
0>
#655753
0k
#655775
1G
#656000
0M
06
#656015
0J
0*
#660000
0!
1>
#660936
0G
#662796
0l
#663561
0r
#663565
0o
#664086
1h
#664380
1E
#664722
0n
#664762
0d
#664892
1r
1o
#665000
1!
0>
#665775
1G
#665789
1k
#667437
1I
1&
#670000
0!
1>
#670936
0G
#672796
1l
#673483
0q
#674330
0E
#675000
1!
0>
#675753
0k
#675775
1G
#675956
1L
12
#680000
0!
1>
#680936
0G
#682796
0l
#683562
1q
#684086
0h
#684380
1E
#684798
1n
#684847
1d
#685000
1!
0>
#685011
0r
#685015
0o
#685323
0j
#685775
1G
#685789
1k
#686018
1i
#686097
0L
02
#686205
1r
#686207
0s
#686211
1o
#686549
1f
#686918
0e
#687094
0p
0m
#687098
0q
#687100
0r
#687580
0I
0&
#688667
1N
1:
#689547
1M
16
#689562
1K
1.
#689571
1L
12
#690000
0!
1>
#690051
1H
1"
#690936
0G
#692796
1l
#693486
1s
1r
#693489
1m
#694330
0E
#695000
1!
0>
#695753
0k
#695775
1G
#696000
0M
06
#696008
0N
0:
#696527
0H
0"
#700000
0!
1>
#700936
0G
#702796
0l
#703561
0r
0m
#703566
0s
#704086
1h
#704380
1E
#704444
0g
#704722
0n
#704760
1p
#704762
0d
#704892
1r
#704901
1m
#704907
1s
#705000
1!
0>
#705436
0f
0h
#705775
1G
#705789
1k
1e
#705872
1g
#706148
1n
#706197
1d
#706346
0s
#706352
1q
#706955
1{
#707291
0K
0.
#707747
0y
#708016
1!!
#708490
0z
#708806
1N
1:
#708887
0L
02
#710000
0!
1>
#710823
0T
0;
#710936
0G
#712796
1l
#713486
1s
#714330
0E
#715000
1!
0>
#715753
0k
#715775
1G
#716008
0N
0:
#720000
0!
1>
#720936
0G
#722796
0l
#723566
0s
#724086
1h
#724380
1E
#724761
0p
#724762
0d
#724907
1s
#724917
0m
#724921
0q
#725000
1!
0>
#725775
1G
#725789
1k
#727229
1K
1.
#727394
1L
12
#727874
1H
1"
#730000
0!
1>
#730936
0G
#732796
1l
#733489
1m
#734330
0E
#735000
1!
0>
#735753
0k
#735775
1G
#736527
0H
0"
#740000
0!
1>
#740936
0G
#742796
0l
#743561
0m
#744086
0h
#744380
1E
#744845
1p
#744847
1d
#744994
1m
#744996
0s
#745000
1!
0>
#745002
1q
#745323
1j
#745775
1G
#745789
1k
#745957
0i
#746137
1s
#746150
0r
#746154
0o
#747376
0K
0.
#747537
0L
02
#748597
1M
16
#748622
1J
1*
#750000
0!
1>
#750936
0G
#752796
1l
#753485
1o
#753486
1r
#754330
0E
#755000
1!
0>
#755753
0k
#755775
1G
#756000
0M
06
#756015
0J
0*
#760000
0!
1>
#760936
0G
#762796
0l
#763561
0r
#763565
0o
#764086
1h
#764380
1E
#764722
0n
#764762
0d
#764892
1r
1o
#765000
1!
0>
#765775
1G
#765789
1k
#767437
1I
1&
#770000
0!
1>
#770936
0G
#772796
1l
#773483
0q
#774330
0E
#775000
1!
0>
#775753
0k
#775775
1G
#775956
1L
12
#780000
0!
1>
#780936
0G
#782796
0l
#783562
1q
#784086
0h
#784380
1E
#784798
1n
#784847
1d
#785000
1!
0>
#785011
0r
#785015
0o
#785323
0j
#785775
1G
#785789
1k
#786018
1i
#786097
0L
02
#786205
1r
#786207
0s
#786211
1o
#786549
1f
#786918
0e
#787094
0p
0m
#787098
0q
#787100
0r
#787580
0I
0&
#788667
1N
1:
#789547
1M
16
#789562
1K
1.
#789571
1L
12
#790000
0!
1>
#790051
1H
1"
#790936
0G
#792796
1l
#793486
1s
1r
#793489
1m
#794330
0E
#795000
1!
0>
#795753
0k
#795775
1G
#796000
0M
06
#796008
0N
0:
#796527
0H
0"
#800000
0!
1>
#800936
0G
#802796
0l
#803561
0r
0m
#803566
0s
#804086
1h
#804380
1E
#804444
0g
#804722
0n
#804760
1p
#804762
0d
#804892
1r
#804901
1m
#804907
1s
